{
    "hosts": {
        "h1": {
            "ip": "10.0.1.1/24",
            "mac": "08:00:00:00:01:11",
            "commands": [
                "route add default gw 10.0.1.10 dev eth0",
                "arp -i eth0 -s 10.0.1.10 08:00:00:00:01:00"
            ]
        },
        "h2": {
            "ip": "10.0.2.2/24",
            "mac": "08:00:00:00:02:22",
            "commands": [
                "route add default gw 10.0.2.20 dev eth0",
                "arp -i eth0 -s 10.0.2.20 08:00:00:00:02:00"
            ]
        },
        "h3": {
            "ip": "10.0.3.3/24",
            "mac": "08:00:00:00:03:33",
            "commands": [
                "route add default gw 10.0.3.30 dev eth0",
                "arp -i eth0 -s 10.0.3.30 08:00:00:00:03:00"
            ]
        },
        "h4": {
            "ip": "10.0.4.4/24",
            "mac": "08:00:00:00:04:44",
            "commands": [
                "route add default gw 10.0.4.40 dev eth0",
                "arp -i eth0 -s 10.0.4.40 08:00:00:00:04:00"
            ]
        },
        "h5": {
            "ip": "10.0.5.5/24",
            "mac": "08:00:00:00:05:55",
            "commands": [
                "route add default gw 10.0.5.50 dev eth0",
                "arp -i eth0 -s 10.0.5.50 08:00:00:00:05:00"
            ]
        },
        "h6": {
            "ip": "10.0.6.6/24",
            "mac": "08:00:00:00:06:66",
            "commands": [
                "route add default gw 10.0.6.60 dev eth0",
                "arp -i eth0 -s 10.0.6.60 08:00:00:00:06:00"
            ]
        },
        "h7": {
            "ip": "10.0.7.7/24",
            "mac": "08:00:00:00:07:77",
            "commands": [
                "route add default gw 10.0.7.70 dev eth0",
                "arp -i eth0 -s 10.0.7.70 08:00:00:00:07:00"
            ]
        },
        "h8": {
            "ip": "10.0.8.8/24",
            "mac": "08:00:00:00:08:88",
            "commands": [
                "route add default gw 10.0.8.80 dev eth0",
                "arp -i eth0 -s 10.0.8.80 08:00:00:00:08:00"
            ]
        }
    },
    "switches": {
        "s1": {
            "runtime_json": "s1-runtime.json"
        },
        "s2": {
            "runtime_json": "s2-runtime.json"
        },
        "s3": {
            "runtime_json": "s3-runtime.json"
        },
        "s4": {
            "runtime_json": "s4-runtime.json"
        },
        "s5": {
            "runtime_json": "s5-runtime.json"
        },
        "s6": {
            "runtime_json": "s6-runtime.json"
        },
        "s7": {
            "runtime_json": "s7-runtime.json"
        },
        "s8": {
            "runtime_json": "s8-runtime.json"
        }
    },
    "links": [
        ["h1", "s1-p1"],
        ["h2", "s2-p1"],
        ["h3", "s3-p1"],
        ["h4", "s4-p1"],
        ["h5", "s5-p1"],
        ["h6", "s6-p1"],
        ["h7", "s7-p1"],
        ["h8", "s8-p1"],
        ["s1-p2", "s2-p2"],
        ["s2-p3", "s6-p2"],
        ["s6-p3", "s5-p2"],
        ["s5-p3", "s1-p3"],
        ["s3-p2", "s4-p2"],
        ["s4-p3", "s8-p2"],
        ["s8-p3", "s7-p2"],
        ["s7-p3", "s3-p3"],
        ["s1-p4", "s4-p4"],
        ["s2-p4", "s3-p4"],
        ["s5-p4", "s8-p4"],
        ["s6-p4", "s7-p4"]
    ]
}

